…
``` r
library(tidyverse)
read_csv("data/vowel_data.csv")
```

    ## Rows: 36 Columns: 17
    ## -- Column specification --------------------------------------------------------
    ## Delimiter: ","
    ## chr  (4): id, item, vowel, language
    ## dbl (13): f1_cent, f2_cent, tl, f1_20, f1_35, f1_50, f1_65, f1_80, f2_20, f2...
    ## 
    ## i Use `spec()` to retrieve the full column specification for this data.
    ## i Specify the column types or set `show_col_types = FALSE` to quiet this message.

    ## # A tibble: 36 x 17
    ##    id    item   vowel language f1_cent f2_cent    tl f1_20 f1_35 f1_50 f1_65
    ##    <chr> <chr>  <chr> <chr>      <dbl>   <dbl> <dbl> <dbl> <dbl> <dbl> <dbl>
    ##  1 iar   meet   i     en          413.   2504.  654.  403.  398.  404.  498.
    ##  2 iar   beat   i     en          324.   2036. 1082.  340.  331.  317.  312.
    ##  3 iar   feet   i     en          294.   2174. 2809.  308.  293.  265.  295.
    ##  4 iar   seat   i     en          336.   2421.  259.  311.  348.  341.  344.
    ##  5 iar   heat   i     en          319.   2458.  245.  318.  332.  324.  299.
    ##  6 iar   fleet  i     en          285.   1404. 1152.  318.  270.  303.  273.
    ##  7 iar   moss   a     en          723.   1279.  154.  689.  739.  748.  710.
    ##  8 iar   bot    a     en          654.   1002.  139.  632.  659.  676.  659.
    ##  9 iar   fought a     en          551.    829.  337.  514.  448.  566.  608.
    ## 10 iar   sought a     en          644.   1031.  365.  614.  631.  643.  690.
    ## # ... with 26 more rows, and 6 more variables: f1_80 <dbl>, f2_20 <dbl>,
    ## #   f2_35 <dbl>, f2_50 <dbl>, f2_65 <dbl>, f2_80 <dbl>
…
